[err] Expected time is 3000, real time is 4000 - 2019-08-20T20:34:57.488321800
[err] Expected time is 3000, real time is 5000 - 2019-08-20T20:34:57.490803900
[err] Expected time is 3000, real time is 4000 - 2019-08-20T20:35:03.499410600
